<?xml version="1.0" encoding="UTF-8"?>
<svg width="752pt" height="752pt" version="1.1" viewBox="0 0 752 752" xmlns="http://www.w3.org/2000/svg">
 <g>
  <path d="m482.84 180.25h-213.68c-13.828 0-25.133 11.305-25.133 25.133v339.34c0 3.4727 2.8398 6.3125 6.3125 6.3125h25.133v14.461c0 3.4727 2.8398 6.3125 6.3125 6.3125h44.012c3.4727 0 6.3125-2.8398 6.3125-6.3125v-14.461h87.961v14.461c0 3.4727 2.8398 6.3125 6.3125 6.3125h44.012c3.4727 0 6.3125-2.8398 6.3125-6.3125v-14.461h25.133c3.4727 0 6.3125-2.8398 6.3125-6.3125v-339.34c-0.1875-13.828-11.492-25.133-25.32-25.133zm-69.145 60.238h44.012v31.445h-44.012zm-157.1-35.109c0-6.9453 5.6211-12.566 12.566-12.566h131.97v345.65h-144.54zm62.828 353.8h-31.445v-8.207h31.445zm144.54 0h-31.445v-8.207h31.445zm31.445-20.773h-81.707v-253.96h50.262c3.4727 0 6.3125-2.8398 6.3125-6.3125v-44.012c0-3.4727-2.8398-6.3125-6.3125-6.3125h-50.262v-34.98h69.145c6.9453 0 12.566 5.6211 12.566 12.566z"/>
  <path d="m448.24 367.1c-12.125 0-21.973 9.8516-21.973 21.973 0 12.125 9.8516 21.973 21.973 21.973 12.125 0 21.973-9.8516 21.973-21.973 0.0625-12.125-9.8516-21.973-21.973-21.973zm0 31.383c-5.1797 0-9.4102-4.2305-9.4102-9.4102 0-5.1797 4.2305-9.4102 9.4102-9.4102 5.1797 0 9.4102 4.2305 9.4102 9.4102 0.0625 5.1797-4.168 9.4102-9.4102 9.4102z"/>
  <path d="m448.24 304.27c-12.125 0-21.973 9.8516-21.973 21.973 0 12.125 9.8516 21.973 21.973 21.973 12.125 0 21.973-9.8516 21.973-21.973 0.0625-12.125-9.8516-21.973-21.973-21.973zm0 31.383c-5.1797 0-9.4102-4.2305-9.4102-9.4102 0-5.1797 4.2305-9.4102 9.4102-9.4102 5.1797 0 9.4102 4.2305 9.4102 9.4102 0 5.1797-4.168 9.4102-9.4102 9.4102z"/>
  <path d="m376.38 512.9c0-3.4727-2.8398-6.3125-6.3125-6.3125h-91.055c-3.4727 0-6.3125 2.8398-6.3125 6.3125 0 3.4727 2.8398 6.3125 6.3125 6.3125h91.117c3.4102-0.0625 6.25-2.8398 6.25-6.3125z"/>
 </g>
</svg>
