<?xml version="1.0" encoding="UTF-8"?>
<svg width="752pt" height="752pt" version="1.1" viewBox="0 0 752 752" xmlns="http://www.w3.org/2000/svg">
 <g>
  <path d="m469.31 608.35h-186.07c-18.691 0-33.887-15.195-33.887-33.887v-395.37c0-18.691 15.195-33.887 33.887-33.887h186.07c18.691 0 33.887 15.195 33.887 33.887v395.37c0 18.688-15.207 33.887-33.887 33.887zm-186.07-452.62c-12.883 0-23.363 10.48-23.363 23.363v395.37c0 12.883 10.48 23.363 23.363 23.363h186.07c12.883 0 23.363-10.48 23.363-23.363v-395.37c0-12.883-10.48-23.363-23.363-23.363z"/>
  <path d="m497.93 528.4h-243.32c-2.9062 0-5.2617-2.3555-5.2617-5.2617s2.3555-5.2617 5.2617-5.2617h243.32c2.9062 0 5.2617 2.3555 5.2617 5.2617s-2.3594 5.2617-5.2617 5.2617z"/>
  <path d="m497.93 227.41h-243.32c-2.9062 0-5.2617-2.3555-5.2617-5.2617s2.3555-5.2617 5.2617-5.2617h243.32c2.9062 0 5.2617 2.3555 5.2617 5.2617 0 2.9023-2.3594 5.2617-5.2617 5.2617z"/>
  <path d="m400.69 582.16h-48.832c-6.7031 0-12.156-5.4531-12.156-12.156v-13.785c0-6.7031 5.4531-12.156 12.156-12.156h48.832c6.7031 0 12.156 5.4531 12.156 12.156v13.785c0 6.7031-5.4531 12.156-12.156 12.156zm-48.832-27.574c-0.88281 0-1.6328 0.74609-1.6328 1.6328v13.785c0 0.88281 0.74609 1.6328 1.6328 1.6328h48.832c0.88281 0 1.6328-0.74609 1.6328-1.6328v-13.785c0-0.88281-0.74609-1.6328-1.6328-1.6328z"/>
  <path d="m399.53 191.58h-46.516c-2.9062 0-5.2617-2.3555-5.2617-5.2617s2.3555-5.2617 5.2617-5.2617h46.516c2.9062 0 5.2617 2.3555 5.2617 5.2617 0.003906 2.9062-2.3555 5.2617-5.2617 5.2617z"/>
  <path d="m452.42 191.58h-14.754c-2.9062 0-5.2617-2.3555-5.2617-5.2617s2.3555-5.2617 5.2617-5.2617h14.754c2.9062 0 5.2617 2.3555 5.2617 5.2617s-2.3477 5.2617-5.2617 5.2617z"/>
  <path d="m314.89 191.58h-14.754c-2.9062 0-5.2617-2.3555-5.2617-5.2617s2.3555-5.2617 5.2617-5.2617h14.754c2.9062 0 5.2617 2.3555 5.2617 5.2617 0.003906 2.9062-2.3555 5.2617-5.2617 5.2617z"/>
 </g>
</svg>
